id,date,nom,ville
1,2018-02-11,"FOIRE AUX DISQUES, CD ET DVD SALLE DES FÊTE ",Bressuire
2,2018-02-11,3ÈME SALON DU DISQUE ET DE LA BD DE LAVAL SALLE POLYVALENTE,Laval
3,2018-02-18,"FOIRE AUX DISQUES, CD ET DVD PARC DES EXPOSITIONS - HALL MENDES FRANCE",Saintes
4,2018-02-24,BOURSE AUX DISQUES SALLE DES FÊTES DU MARCHÉ GARE,Saintes
